{
  "_id": "639f13b2b5e1410001e766da",
  "id": "639f13b2b5e1410001e766da",
  "name": "Notifications API",
  "org_id": "62f9cbc20c85b00001493740",
  "rate": 1000,
  "per": 60,
  "quota_max": -1,
  "quota_renewal_rate": -1,
  "throttle_interval": -1,
  "throttle_retry_limit": -1,
  "max_query_depth": -1,
  "access_rights": {
    "af56e88c1c844c735fa13c5a3592ad53": {
      "api_name": "inventory",
      "api_id": "af56e88c1c844c735fa13c5a3592ad53",
      "versions": [
        "Default"
      ],
      "allowed_urls": [],
      "restricted_types": [],
      "limit": null,
      "field_access_rights": [],
      "allowance_scope": ""
    }
  },
  "hmac_enabled": false,
  "active": true,
  "is_inactive": false,
  "date_created": "2022-12-18T13:20:50.419Z",
  "tags": [],
  "key_expires_in": 0,
  "partitions": {
    "quota": false,
    "rate_limit": false,
    "complexity": false,
    "acl": true,
    "per_api": false
  },
  "last_updated": "1671369659",
  "meta_data": {}
}